<?xml version="1.0" encoding="UTF-8" standalone="no"?>
<!-- Created with Inkscape (http://www.inkscape.org/) -->

<svg
   xmlns:dc="http://purl.org/dc/elements/1.1/"
   xmlns:cc="http://creativecommons.org/ns#"
   xmlns:rdf="http://www.w3.org/1999/02/22-rdf-syntax-ns#"
   xmlns:svg="http://www.w3.org/2000/svg"
   xmlns="http://www.w3.org/2000/svg"
   xmlns:sodipodi="http://sodipodi.sourceforge.net/DTD/sodipodi-0.dtd"
   xmlns:inkscape="http://www.inkscape.org/namespaces/inkscape"
   width="210mm"
   height="297mm"
   id="svg2"
   version="1.1"
   inkscape:version="0.48.1 r9760"
   sodipodi:docname="logo_ecp.svg">
  <defs
     id="defs4">
    <inkscape:perspective
       sodipodi:type="inkscape:persp3d"
       inkscape:vp_x="0 : 526.18109 : 1"
       inkscape:vp_y="0 : 1000 : 0"
       inkscape:vp_z="744.09448 : 526.18109 : 1"
       inkscape:persp3d-origin="372.04724 : 350.78739 : 1"
       id="perspective10" />
    <inkscape:perspective
       id="perspective2822"
       inkscape:persp3d-origin="0.5 : 0.33333333 : 1"
       inkscape:vp_z="1 : 0.5 : 1"
       inkscape:vp_y="0 : 1000 : 0"
       inkscape:vp_x="0 : 0.5 : 1"
       sodipodi:type="inkscape:persp3d" />
    <inkscape:perspective
       sodipodi:type="inkscape:persp3d"
       inkscape:vp_x="0 : 0.5 : 1"
       inkscape:vp_y="0 : 1000 : 0"
       inkscape:vp_z="1 : 0.5 : 1"
       inkscape:persp3d-origin="0.5 : 0.33333333 : 1"
       id="perspective2871" />
    <inkscape:perspective
       id="perspective2861"
       inkscape:persp3d-origin="372.04724 : 350.78739 : 1"
       inkscape:vp_z="744.09448 : 526.18109 : 1"
       inkscape:vp_y="0 : 1000 : 0"
       inkscape:vp_x="0 : 526.18109 : 1"
       sodipodi:type="inkscape:persp3d" />
    <inkscape:perspective
       sodipodi:type="inkscape:persp3d"
       inkscape:vp_x="0 : 0.5 : 1"
       inkscape:vp_y="0 : 1000 : 0"
       inkscape:vp_z="1 : 0.5 : 1"
       inkscape:persp3d-origin="0.5 : 0.33333333 : 1"
       id="perspective3661" />
    <inkscape:perspective
       sodipodi:type="inkscape:persp3d"
       inkscape:vp_x="0 : 0.5 : 1"
       inkscape:vp_y="0 : 1000 : 0"
       inkscape:vp_z="1 : 0.5 : 1"
       inkscape:persp3d-origin="0.5 : 0.33333333 : 1"
       id="perspective3612-7" />
    <inkscape:perspective
       sodipodi:type="inkscape:persp3d"
       inkscape:vp_x="0 : 0.5 : 1"
       inkscape:vp_y="0 : 1000 : 0"
       inkscape:vp_z="1 : 0.5 : 1"
       inkscape:persp3d-origin="0.5 : 0.33333333 : 1"
       id="perspective3612-2" />
    <inkscape:perspective
       sodipodi:type="inkscape:persp3d"
       inkscape:vp_x="0 : 0.5 : 1"
       inkscape:vp_y="0 : 1000 : 0"
       inkscape:vp_z="1 : 0.5 : 1"
       inkscape:persp3d-origin="0.5 : 0.33333333 : 1"
       id="perspective3612" />
    <inkscape:perspective
       sodipodi:type="inkscape:persp3d"
       inkscape:vp_x="0 : 0.5 : 1"
       inkscape:vp_y="0 : 1000 : 0"
       inkscape:vp_z="1 : 0.5 : 1"
       inkscape:persp3d-origin="0.5 : 0.33333333 : 1"
       id="perspective3598" />
    <inkscape:perspective
       id="perspective10-0"
       inkscape:persp3d-origin="372.04724 : 350.78739 : 1"
       inkscape:vp_z="744.09448 : 526.18109 : 1"
       inkscape:vp_y="0 : 1000 : 0"
       inkscape:vp_x="0 : 526.18109 : 1"
       sodipodi:type="inkscape:persp3d" />
  </defs>
  <sodipodi:namedview
     id="base"
     pagecolor="#ffffff"
     bordercolor="#666666"
     borderopacity="1.0"
     inkscape:pageopacity="0.0"
     inkscape:pageshadow="2"
     inkscape:zoom="2.8"
     inkscape:cx="271.09245"
     inkscape:cy="607.91224"
     inkscape:document-units="px"
     inkscape:current-layer="layer1"
     showgrid="false"
     inkscape:window-width="1680"
     inkscape:window-height="937"
     inkscape:window-x="0"
     inkscape:window-y="0"
     inkscape:window-maximized="0" />
  <metadata
     id="metadata7">
    <rdf:RDF>
      <cc:Work
         rdf:about="">
        <dc:format>image/svg+xml</dc:format>
        <dc:type
           rdf:resource="http://purl.org/dc/dcmitype/StillImage" />
        <dc:title></dc:title>
      </cc:Work>
    </rdf:RDF>
  </metadata>
  <g
     inkscape:label="Calque 1"
     inkscape:groupmode="layer"
     id="layer1">
    <path
       style="fill:#7d7d7d;fill-opacity:1"
       d="m 265.53476,480.64917 c -0.48234,-0.37127 -0.49417,-0.43637 -0.1647,-0.90667 0.3529,-0.50382 0.35748,-0.50414 0.80696,-0.0545 0.56978,0.56974 0.96227,0.57156 1.47337,0.008 0.49587,-0.54796 0.34638,-0.81326 -0.78303,-1.38944 -1.22677,-0.6258 -1.61747,-1.07754 -1.61747,-1.87007 0,-0.97526 0.90442,-1.81207 1.95855,-1.81207 1.4086,0 2.12722,0.6495 1.45848,1.31823 -0.19452,0.19451 -0.3908,0.17577 -0.77216,-0.0741 -0.95801,-0.62771 -1.90034,0.28979 -0.96955,0.94399 0.27964,0.19664 0.87047,0.5897 1.31296,0.87361 0.67483,0.43306 0.81573,0.66839 0.87394,1.45961 0.0583,0.79406 -0.0286,1.02025 -0.54821,1.42918 -0.76831,0.60435 -2.29273,0.64243 -3.0291,0.0755 z m -109.93105,-2.80793 0,-2.98826 1.5579,0 c 2.03305,0 2.58099,0.35728 2.57617,1.67957 -0.002,0.53018 -0.0795,1.07771 -0.17235,1.21682 -0.28504,0.4269 -1.13709,0.78148 -1.87776,0.78148 -0.69241,0 -0.70472,0.0212 -0.70472,1.14933 0,1.12385 -0.0159,1.14934 -0.6896,1.14934 l -0.68959,0 0,-2.98828 z m 2.71241,-0.50568 c 0.59815,-0.59815 0.24387,-1.44699 -0.7034,-1.68469 -0.61828,-0.15519 -0.62981,-0.13857 -0.62981,0.90124 0,0.95213 0.0536,1.05928 0.52867,1.05928 0.2908,0 0.65283,-0.12404 0.80454,-0.27583 z m 24.87152,3.27941 c 0,-0.11798 0.47967,-1.46267 1.06593,-2.98827 l 1.06596,-2.77372 0.77298,0 c 0.42513,0 0.77299,0.029 0.77299,0.0644 0,0.0357 0.50842,1.38018 1.12982,2.98826 l 1.12978,2.92388 -0.73461,0 c -0.6082,0 -0.78025,-0.12087 -0.99987,-0.7028 -0.25126,-0.66592 -0.32329,-0.69909 -1.37033,-0.6321 -0.94586,0.0605 -1.14849,0.16178 -1.40671,0.70276 -0.20772,0.43507 -0.47697,0.63214 -0.86382,0.63214 -0.30917,0 -0.56212,-0.0966 -0.56212,-0.21457 z m 3.54519,-2.05541 c 0.0683,-0.11057 -0.0475,-0.70506 -0.25733,-1.32098 l -0.38157,-1.11979 -0.29142,0.71422 c -0.16022,0.39281 -0.35998,0.98729 -0.44372,1.32096 -0.13963,0.5564 -0.0943,0.60676 0.54865,0.60676 0.38552,0 0.7569,-0.0906 0.82529,-0.20112 z m 25.64782,-0.71832 0,-2.98826 1.5579,0 c 1.99244,0 2.57968,0.3649 2.57968,1.60298 0,0.69508 -0.13196,0.98342 -0.60965,1.33134 l -0.60965,0.44411 0.68548,1.01173 c 1.10935,1.63738 1.1023,1.58638 0.21959,1.58638 -0.7336,0 -0.86573,-0.11161 -1.56516,-1.32175 l -0.76394,-1.32172 -0.0689,1.32172 c -0.0676,1.29482 -0.0829,1.32175 -0.74709,1.32175 l -0.67811,0 0,-2.98828 z m 2.77438,-0.82377 c 0.41055,-0.49469 0.0104,-1.10769 -0.78624,-1.20281 -0.55846,-0.0667 -0.60894,-0.006 -0.60894,0.74706 0,0.70996 0.0731,0.81979 0.54652,0.81979 0.30058,0 0.68247,-0.16391 0.84866,-0.36404 z m 25.2693,0.82377 0,-2.98826 0.57464,0 0.57466,0 0,2.98826 0,2.98828 -0.57466,0 -0.57464,0 0,-2.98828 z m -85.28036,-7.70049 0,-1.03442 57.0068,0 57.00682,0 0,1.03442 0,1.03439 -57.00682,0 -57.0068,0 0,-1.03439 z m 6.89599,-4.02247 c -2.39659,-0.40693 -4.45536,-1.82503 -5.45351,-3.75639 -0.50154,-0.97048 -0.61393,-1.49913 -0.61854,-2.90994 -0.006,-1.47804 0.09,-1.89837 0.66473,-2.94657 0.81472,-1.48581 1.86818,-2.44404 3.55788,-3.23634 1.12854,-0.52918 1.55165,-0.59612 3.68837,-0.58339 1.75548,0.0104 2.64862,0.12089 3.27558,0.40519 0.81333,0.36872 0.862,0.45011 0.862,1.44124 0,0.57777 -0.0776,1.01056 -0.17234,0.96176 -1.73015,-0.8906 -2.1072,-0.98374 -3.96519,-0.97973 -1.45069,0.006 -2.16106,0.11381 -2.75841,0.4292 -1.87065,0.98793 -2.84334,2.52399 -2.85697,4.51191 -0.0269,3.93063 4.63869,6.27598 8.59246,4.31924 l 1.1605,-0.57431 0,1.08629 c 0,0.96852 -0.0686,1.1146 -0.63214,1.34736 -0.70614,0.29172 -3.14134,0.72544 -3.85023,0.68579 -0.25285,-0.0132 -0.92521,-0.10479 -1.49413,-0.20137 z m 34.46324,-1.90495 c -4.59533,-4.0047 -8.79623,-7.51976 -8.98695,-7.51976 -0.10502,0 -0.19108,2.06878 -0.19108,4.59731 l 0,4.59732 -1.03439,0 -1.0344,0 0,-6.78104 c 0,-3.72958 0.0433,-6.781 0.0961,-6.781 0.0527,0 2.66474,2.18504 5.80414,4.8557 l 5.70798,4.85568 0.0623,-4.62582 0.0623,-4.62582 1.14459,0 1.14456,0 0,6.781 c 0,3.72962 -0.0776,6.77727 -0.17235,6.7727 -0.0947,-0.006 -1.26601,-0.96141 -2.60266,-2.12627 z m -23.88941,-4.8763 0,-6.55113 4.1376,0 4.13758,0 0,0.8045 0,0.80454 -3.10319,0 -3.10318,0 0,1.83889 0,1.83893 2.98825,0 2.98826,0 0,0.80453 0,0.80455 -2.99629,0 -2.99632,0 0.0655,2.35612 0.0655,2.35614 3.04572,0.0641 3.04572,0.0642 0,0.68295 0,0.68287 -4.13757,0 -4.1376,0 0,-6.55117 z m 34.47992,0.80452 0,-5.74661 -1.8389,0 -1.83894,0 0,-0.80454 0,-0.8045 4.71223,0 4.71226,0 0,0.79485 0,0.79485 -1.78144,0.0671 -1.78148,0.0671 -0.0615,5.68914 -0.0615,5.68917 -1.03038,0 -1.03038,0 0,-5.74666 z m 10.11412,-0.83114 0,-6.57782 3.04572,0.0955 c 3.45839,0.10849 4.45459,0.42795 5.22584,1.67586 0.61504,0.9952 0.62881,2.96842 0.0272,3.88112 -0.59368,0.90052 -1.55359,1.48663 -2.72158,1.66177 l -0.98119,0.14702 1.66725,1.82447 c 0.91699,1.00342 2.06591,2.28465 2.55317,2.84711 l 0.88591,1.02262 -1.34564,-0.008 -1.34565,-0.008 -2.41358,-2.79024 -2.4136,-2.79027 -0.0647,2.79829 -0.0644,2.79837 -1.02731,0 -1.02732,0 0,-6.57788 z m 5.14932,-0.63867 c 1.53545,-0.64158 1.99621,-2.31463 0.96697,-3.51118 -0.49469,-0.57513 -0.72533,-0.64814 -2.29868,-0.72759 l -1.74883,-0.0883 0,2.3238 0,2.32374 1.15673,0 c 0.6362,0 1.50192,-0.1441 1.92381,-0.32047 z m 9.4952,5.19542 c 0.60572,-1.11162 2.28795,-4.20116 3.73833,-6.8657 l 2.63701,-4.84456 2.95741,5.54392 c 1.62658,3.04919 3.26011,6.13875 3.63015,6.86567 l 0.67273,1.32171 -1.21717,0 -1.21717,0 -0.85616,-1.73025 -0.85619,-1.73029 -3.25943,0.0639 -3.25942,0.0639 -0.89604,1.66649 -0.89604,1.66654 -1.13966,0 -1.13965,0 1.1013,-2.02105 z m 7.51085,-5.3879 -1.29483,-2.58185 -1.22383,2.40942 c -0.67314,1.32517 -1.22915,2.48702 -1.23565,2.58179 -0.006,0.0947 1.12693,0.17236 2.51869,0.17236 l 2.53043,0 -1.29481,-2.58177 z m 10.48562,0.85777 0,-6.55113 1.03046,0 1.03043,0 0.0615,5.80406 0.0615,5.80414 2.58598,0.0649 2.58602,0.0649 0,0.68208 0,0.68204 -3.67787,0 -3.67787,0 0,-6.55116 z m 11.72318,0 0,-6.55113 4.13758,0 4.1376,0 0,0.8045 0,0.80454 -3.1032,0 -3.10319,0 0,1.83889 0,1.83893 2.98827,0 2.98823,0 0,0.80453 0,0.80455 -2.99628,0 -2.99631,0 0.0654,2.35612 0.0654,2.35614 3.04573,0.0641 3.04573,0.0642 0,0.68295 0,0.68287 -4.13761,0 -4.13758,0 0,-6.55117 z m -66.89104,-20.02392 0,-4.73786 0.74704,0.1383 c 2.13961,0.39584 7.50903,0.5876 10.49025,0.37451 4.95077,-0.35374 13.45309,-1.91145 19.39236,-3.55283 l 2.01133,-0.55588 0,6.53581 0,6.53587 -16.3205,0 -16.32048,0 0,-4.73787 z m 2.75837,-6.43762 c -6.68329,-0.81518 -11.7969,-3.29662 -14.65315,-7.11055 -2.71885,-3.6305 -3.91514,-6.99514 -4.12816,-11.61071 -0.32978,-7.14515 1.7697,-12.71692 7.05385,-18.71996 6.23555,-7.08391 16.29255,-12.236 27.12849,-13.89761 0.9482,-0.14542 1.98648,-0.31379 2.30731,-0.3742 l 0.58328,-0.10976 -0.3325,3.11074 c -0.30006,2.80745 -0.3758,3.1107 -0.77703,3.1107 -0.99974,0 -5.28953,1.0081 -7.89336,1.85498 -5.73903,1.86651 -10.14267,4.47452 -13.88559,8.22351 -3.32658,3.33201 -4.95822,5.94349 -6.34142,10.14974 -0.57471,1.74761 -0.6427,2.28142 -0.64417,5.05706 -0.001,2.77985 0.0599,3.26466 0.58919,4.65288 0.88472,2.3205 1.96937,3.96227 3.69769,5.59706 3.572,3.37863 8.8766,4.78605 15.93314,4.2273 14.68712,-1.16295 33.95741,-8.83803 57.46859,-22.88897 3.37742,-2.01841 4.5738,-2.62183 5.19829,-2.62183 0.50787,0 1.61775,-0.40456 2.96859,-1.08209 1.6659,-0.83558 2.41933,-1.08637 3.30679,-1.10072 0.63214,-0.0104 1.3045,-0.0891 1.49413,-0.17552 0.92967,-0.42302 3.66941,-1.32046 4.05048,-1.32678 0.23755,-0.006 0.84566,-0.26208 1.35137,-0.57349 1.57424,-0.96959 1.3844,-0.62857 -0.49422,0.88791 -9.11872,7.36076 -23.10938,16.14526 -35.93957,22.56568 -13.53868,6.77505 -22.74775,9.95927 -33.67538,11.64399 -2.87324,0.44292 -12.20296,0.77463 -14.36664,0.51073 z m 66.43132,-25.02846 c 0.23279,-0.28045 0.2217,-0.3448 -0.0587,-0.3448 -0.18976,0 -0.47356,0.15519 -0.63094,0.3448 -0.2328,0.28042 -0.2217,0.34481 0.0587,0.34481 0.18976,0 0.47356,-0.1552 0.63095,-0.34481 z m 4.1422,-0.92499 c 0.15993,-0.19268 0.22672,-0.41435 0.14859,-0.49252 -0.16707,-0.16707 -0.84284,0.3472 -0.84284,0.64114 0,0.31661 0.37466,0.23648 0.69419,-0.1486 z m 2.29405,-3.80084 c 0,-0.13381 -0.1034,-0.17947 -0.22989,-0.10132 -0.12642,0.0781 -0.22988,0.18765 -0.22988,0.24334 0,0.0557 0.10341,0.10132 0.22988,0.10132 0.12643,0 0.22989,-0.10953 0.22989,-0.24335 z m 2.98827,-0.11485 c 0,-0.0556 -0.10352,-0.10131 -0.22989,-0.10131 -0.12642,0 -0.22988,0.10952 -0.22988,0.24334 0,0.1338 0.1034,0.17947 0.22988,0.10132 0.12642,-0.0781 0.22989,-0.18765 0.22989,-0.24334 z m 1.72399,-0.50711 c 0.50463,-0.37077 0.82179,-0.93566 0.60171,-1.07167 -0.26961,-0.16654 -1.46405,0.88327 -1.24927,1.09809 0.19136,0.19135 0.36059,0.18448 0.64756,-0.0263 z m 4.02267,-3.05032 c 0,-0.12193 -0.14253,-0.2217 -0.31667,-0.2217 -0.38202,0 -0.88639,0.55924 -0.68551,0.76009 0.18687,0.18686 1.00218,-0.251 1.00218,-0.53831 z m -79.53371,25.62312 c -2.02347,-0.35367 -3.2111,-0.66881 -3.96892,-1.05314 l -0.86574,-0.43912 0.0612,-6.14235 0.0612,-6.1423 16.26302,-0.0591 16.26302,-0.0591 0,4.58914 0,4.58914 -1.66652,0.49693 c -5.25224,1.56611 -12.19714,3.13079 -16.74077,3.77164 -2.61148,0.36831 -8.30976,0.63982 -9.40651,0.44813 z"
       id="path2830" />
  </g>
</svg>
